{
  "data": {
    "schedule_start_time": "2023-01-06 00:00:00",
    "scheduled_task": [
      {
        "end_time": "2023-01-06 09:20:00",
        "task_id": "XN1606546506901491712",
        "laboratory": "CD",
        "experiment_id": "1",
        "start_time": "2023-01-06 08:30:00",
        "task_type": "可靠性",
        "using_device": {
          "11023": 1
        },
        "using_worker": {
          "2": 1
        },
        "task_sort": 1
      },
      {
        "end_time": "2023-01-06 11:00:00",
        "task_id": "XN1606546506897297408",
        "laboratory": "CD",
        "task_type": "性能",
        "experiment_id": "1",
        "start_time": "2023-01-06 10:10:00",
        "using_device": {
          "11023": 6
        },
        "using_worker": {
          "3": 1
        },
        "task_sort": 2
      },
      {
        "end_time": "2023-01-31 23:59:59",
        "task_id": "XN1606546506897294700",
        "laboratory": "CD",
        "task_type": "性能",
        "experiment_id": "1",
        "start_time": "2023-01-01 00:00:00",
        "using_device": {
          "11026": 2
        },
        "using_worker": {
          "4": 2
        },
        "task_sort": 9
      }
    ],
    "scheduling_task": [
      {
        "available_device": {
          "11023": 6,
          "11024": 4
        },
        "available_worker": {
          "2": 1,
          "3": 5
        },
        "task_type": "可靠性",
        "task_duration": 50,
        "task_id": "1055483494475497472",
        "laboratory": "CD",
        "experiment_id": "1",
        "task_order": 5,
        "plan_start_time": "2023-01-06 15:30:11",
        "task_sort": 3
      },
      {
        "available_device": {
          "11023": 6,
          "11024": 4
        },
        "available_worker": {
          "2": 1,
          "3": 5
        },
        "task_type": "性能",
        "task_duration": 50,
        "task_id": "1055483494156730368",
        "laboratory": "CD",
        "experiment_id": "1",
        "task_order": 5,
        "plan_start_time": "2023-01-06 14:51:11",
        "task_sort": 4
      },
      {
        "available_device": {
          "11023": 6,
          "11024": 4,
          "11025": 2
        },
        "available_worker": {
          "2": 1,
          "3": 5
        },
        "task_type": "性能",
        "task_duration": 50,
        "task_id": "1055483494156780368",
        "laboratory": "CD",
        "experiment_id": "1",
        "task_order": 5,
        "plan_start_time": "2023-01-06 17:51:11",
        "task_sort": 1000
      },
      {
        "available_device": {
          "11023": 6,
          "11024": 4,
          "11025": 2
        },
        "available_worker": {
          "2": 1,
          "3": 5
        },
        "task_type": "可靠性",
        "task_duration": 50,
        "task_id": "1055483494156780369",
        "laboratory": "CD",
        "experiment_id": "1",
        "task_order": 5,
        "plan_start_time": "2023-01-06 18:51:11",
        "task_sort": 1000
      },
      {
        "available_device": {
          "11025": 2
        },
        "available_worker": {
          "3": 5
        },
        "task_type": "可靠性",
        "task_duration": 50,
        "task_id": "1055483494156780370",
        "laboratory": "CD",
        "experiment_id": "1",
        "task_order": 5,
        "plan_start_time": "2023-01-06 17:51:11",
        "task_sort": 7
      },
      {
        "available_device": {
          "11025": 2
        },
        "available_worker": {
          "3": 5
        },
        "task_type": "可靠性",
        "task_duration": 50,
        "task_id": "1055483494156780371",
        "laboratory": "CD",
        "experiment_id": "1",
        "task_order": 5,
        "plan_start_time": "2023-01-06 06:51:11",
        "task_sort": 10
      }
    ],
    "work_time_constraint": {
      "spring": {
        "date_range": [
          "2-16",
          "7-14"
        ],
        "day_range": {
          "am": [
            "8:30",
            "12:00"
          ],
          "pm": [
            "13:30",
            "18:00"
          ]
        }
      },
      "winter": {
        "date_range": [
          "11-16",
          "2-15"
        ],
        "day_range": {
          "am": [
            "8:30",
            "12:00"
          ],
          "pm": [
            "13:30",
            "17:30"
          ]
        }
      },
      "autumn": {
        "date_range": [
          "10-1",
          "11-15"
        ],
        "day_range": {
          "am": [
            "8:30",
            "12:00"
          ],
          "pm": [
            "13:30",
            "18:00"
          ]
        }
      },
      "summer": {
        "date_range": [
          "7-15",
          "9-30"
        ],
        "day_range": {
          "am": [
            "8:30",
            "12:00"
          ],
          "pm": [
            "14:00",
            "18:00"
          ]
        }
      }
    }
  }
}